-------------------------------------------------------------------------------
Test set: com.damian.SortingEngineTest
-------------------------------------------------------------------------------
Tests run: 5, Failures: 0, Errors: 0, Skipped: 0, Time elapsed: 0.02 sec
